0,1
200,1
400,1
600,1
800,1
1000,0
1200,0
1400,1
1600,1
1800,0
2000,1
2200,0
2400,1
2600,0
2800,0
3000,0
3200,1
3400,1
3600,1
3800,1
4000,1
4200,0
4400,0
4600,1
4800,1
5000,0
5200,1
5400,0
5600,1
5800,0
6000,0
6200,0
6400,1
6600,1
6800,1
7000,1
7200,1
7400,0
7600,0
7800,1
8000,1
8200,0
8400,1
8600,0
8800,1
9000,0
9200,0
9400,0
9600,1
9800,1
10000,1
10200,1
10400,1
10600,0
10800,0
11000,1
11200,1
11400,0
11600,1
11800,0
12000,1
12200,0
12400,0
12600,0
